rtl/simulate.log
Time resolution is 1 ps
viterbi_tx_rx1.sv
viterbi_tx_rx1.sv
viterbi_tx_rx1.sv
viterbi_tx_rx1.sv
viterbi_tx_rx1.sv
viterbi_tx_rx1.sv
viterbi_tx_rx1.sv
viterbi_tx_rx1.sv
viterbi_tx_rx1.sv
viterbi_tx_rx1.sv
viterbi_tx_rx1.sv
error_counter,err_inj = 00000000 xx           0           0
error_counter,err_inj = 00000000 00           0           1
error_counter,err_inj = 00000000 00           0           2
error_counter,err_inj = 00000000 00           0           3
error_counter,err_inj = 00000000 00           0           4
error_counter,err_inj = 00000000 00           0           5
error_counter,err_inj = 00000000 00           0           6
error_counter,err_inj = 00000000 00           0           7
error_counter,err_inj = 00000000 00           0           8
error_counter,err_inj = 00000000 00           0           9
error_counter,err_inj = 00000000 00           0          10
error_counter,err_inj = 00000000 00           0          11
error_counter,err_inj = 00000000 00           0          12
error_counter,err_inj = 00000000 00           0          13
error_counter,err_inj = 00000000 00           0          14
error_counter,err_inj = 00000000 00           0          15
error_counter,err_inj = 00000000 00           0          16
error_counter,err_inj = 00000000 00           0          17
error_counter,err_inj = 00000000 00           0          18
error_counter,err_inj = 00000000 00           0          19
error_counter,err_inj = 00000000 00           0          20
error_counter,err_inj = 00000000 00           0          21
error_counter,err_inj = 00000000 00           0          22
error_counter,err_inj = 00000000 00           0          23
error_counter,err_inj = 00000000 00           0          24
error_counter,err_inj = 00000000 00           0          25
error_counter,err_inj = 00000000 00           0          26
error_counter,err_inj = 00000000 00           0          27
error_counter,err_inj = 00000000 00           0          28
error_counter,err_inj = 00000000 00           0          29
error_counter,err_inj = 00000000 00           0          30
error_counter,err_inj = 00000000 00           0          31
error_counter,err_inj = 00000000 00           0          32
error_counter,err_inj = 00000000 00           0          33
error_counter,err_inj = 00000000 00           0          34
error_counter,err_inj = 00000000 00           0          35
error_counter,err_inj = 00000000 00           0          36
error_counter,err_inj = 00000000 00           0          37
error_counter,err_inj = 00000000 00           0          38
error_counter,err_inj = 00000000 00           0          39
error_counter,err_inj = 00000000 00           0          40
error_counter,err_inj = 00000000 00           0          41
error_counter,err_inj = 00000000 00           0          42
error_counter,err_inj = 00000000 00           0          43
error_counter,err_inj = 00000000 00           0          44
error_counter,err_inj = 00000000 00           0          45
error_counter,err_inj = 00000000 00           0          46
error_counter,err_inj = 00000000 00           0          47
error_counter,err_inj = 00000000 00           0          48
error_counter,err_inj = 00000000 00           0          49
error_counter,err_inj = 00000000 00           0          50
error_counter,err_inj = 00000000 00           0          51
error_counter,err_inj = 00000000 00           0          52
error_counter,err_inj = 00000000 00           0          53
error_counter,err_inj = 00000000 00           0          54
error_counter,err_inj = 00000000 00           0          55
error_counter,err_inj = 00000000 00           0          56
error_counter,err_inj = 00000000 00           0          57
error_counter,err_inj = 00000000 00           0          58
error_counter,err_inj = 00000000 00           0          59
error_counter,err_inj = 00000000 00           0          60
error_counter,err_inj = 00000000 00           0          61
error_counter,err_inj = 00000000 00           0          62
error_counter,err_inj = 00000000 00           0          63
error_counter,err_inj = 00000000 00           0          64
error_counter,err_inj = 00000000 00           0          65
error_counter,err_inj = 00000000 00           0          66
error_counter,err_inj = 00000000 00           0          67
error_counter,err_inj = 00000000 00           0          68
error_counter,err_inj = 00000000 00           0          69
error_counter,err_inj = 00000000 00           0          70
error_counter,err_inj = 00000000 00           0          71
error_counter,err_inj = 00000000 00           0          72
error_counter,err_inj = 00000000 00           0          73
error_counter,err_inj = 00000000 00           0          74
error_counter,err_inj = 00000000 00           0          75
error_counter,err_inj = 00000000 00           0          76
error_counter,err_inj = 00000000 00           0          77
error_counter,err_inj = 00000000 00           0          78
error_counter,err_inj = 00000000 00           0          79
error_counter,err_inj = 00000000 00           0          80
error_counter,err_inj = 00000000 00           0          81
error_counter,err_inj = 00000000 00           0          82
error_counter,err_inj = 00000000 00           0          83
error_counter,err_inj = 00000000 00           0          84
error_counter,err_inj = 00000000 00           0          85
error_counter,err_inj = 00000000 00           0          86
error_counter,err_inj = 00000000 00           0          87
error_counter,err_inj = 00000000 00           0          88
error_counter,err_inj = 00000000 00           0          89
error_counter,err_inj = 00000000 00           0          90
error_counter,err_inj = 00000000 00           0          91
error_counter,err_inj = 00000000 00           0          92
error_counter,err_inj = 00000000 00           0          93
error_counter,err_inj = 00000000 00           0          94
error_counter,err_inj = 00000000 00           0          95
error_counter,err_inj = 00000000 00           0          96
error_counter,err_inj = 00000000 00           0          97
error_counter,err_inj = 00000000 00           0          98
error_counter,err_inj = 00000000 00           0          99
error_counter,err_inj = 00000000 00           0         100
error_counter,err_inj = 00000000 00           0         101
error_counter,err_inj = 00000000 00           0         102
error_counter,err_inj = 00000000 00           0         103
error_counter,err_inj = 00000000 00           0         104
error_counter,err_inj = 00000000 00           0         105
error_counter,err_inj = 00000000 00           0         106
error_counter,err_inj = 00000000 00           0         107
error_counter,err_inj = 00000000 00           0         108
error_counter,err_inj = 00000000 00           0         109
error_counter,err_inj = 00000000 00           0         110
error_counter,err_inj = 00000000 00           0         111
error_counter,err_inj = 00000000 00           0         112
error_counter,err_inj = 00000000 00           0         113
error_counter,err_inj = 00000000 00           0         114
error_counter,err_inj = 00000000 00           0         115
error_counter,err_inj = 00000000 00           0         116
error_counter,err_inj = 00000000 00           0         117
error_counter,err_inj = 00000000 00           0         118
error_counter,err_inj = 00000000 00           0         119
error_counter,err_inj = 00000000 00           0         120
error_counter,err_inj = 00000000 00           0         121
error_counter,err_inj = 00000000 00           0         122
error_counter,err_inj = 00000000 00           0         123
error_counter,err_inj = 00000000 00           0         124
error_counter,err_inj = 00000000 00           0         125
error_counter,err_inj = 00000000 00           0         126
error_counter,err_inj = 00000000 00           0         127
error_counter,err_inj = 00000000 00           0         128
error_counter,err_inj = 00000000 00           0         129
error_counter,err_inj = 00000000 00           0         130
error_counter,err_inj = 00000000 00           0         131
error_counter,err_inj = 00000000 00           0         132
error_counter,err_inj = 00000000 00           0         133
error_counter,err_inj = 00000000 00           0         134
error_counter,err_inj = 00000000 00           0         135
error_counter,err_inj = 00000000 00           0         136
error_counter,err_inj = 00000000 00           0         137
error_counter,err_inj = 00000000 00           0         138
error_counter,err_inj = 00000000 00           0         139
error_counter,err_inj = 00000000 00           0         140
error_counter,err_inj = 00000000 00           0         141
error_counter,err_inj = 00000000 00           0         142
error_counter,err_inj = 00000000 00           0         143
error_counter,err_inj = 00000000 00           0         144
error_counter,err_inj = 00000000 00           0         145
error_counter,err_inj = 00000000 00           0         146
error_counter,err_inj = 00000000 00           0         147
error_counter,err_inj = 00000000 00           0         148
error_counter,err_inj = 00000000 00           0         149
error_counter,err_inj = 00000000 00           0         150
error_counter,err_inj = 00000000 00           0         151
error_counter,err_inj = 00000000 00           0         152
error_counter,err_inj = 00000000 00           0         153
error_counter,err_inj = 00000000 00           0         154
error_counter,err_inj = 00000000 00           0         155
error_counter,err_inj = 00000000 00           0         156
error_counter,err_inj = 00000000 00           0         157
error_counter,err_inj = 00000000 00           0         158
error_counter,err_inj = 00000000 00           0         159
error_counter,err_inj = 00000000 00           0         160
error_counter,err_inj = 00000000 00           0         161
error_counter,err_inj = 00000000 00           0         162
error_counter,err_inj = 00000000 00           0         163
error_counter,err_inj = 00000000 00           0         164
error_counter,err_inj = 00000000 00           0         165
error_counter,err_inj = 00000000 00           0         166
error_counter,err_inj = 00000000 00           0         167
error_counter,err_inj = 00000000 00           0         168
error_counter,err_inj = 00000000 00           0         169
error_counter,err_inj = 00000000 00           0         170
error_counter,err_inj = 00000000 00           0         171
error_counter,err_inj = 00000000 00           0         172
error_counter,err_inj = 00000000 00           0         173
error_counter,err_inj = 00000000 00           0         174
error_counter,err_inj = 00000000 00           0         175
error_counter,err_inj = 00000000 00           0         176
error_counter,err_inj = 00000000 00           0         177
error_counter,err_inj = 00000000 00           0         178
error_counter,err_inj = 00000000 00           0         179
error_counter,err_inj = 00000000 00           0         180
error_counter,err_inj = 00000000 00           0         181
error_counter,err_inj = 00000000 00           0         182
error_counter,err_inj = 00000000 00           0         183
error_counter,err_inj = 00000000 00           0         184
error_counter,err_inj = 00000000 00           0         185
error_counter,err_inj = 00000000 00           0         186
error_counter,err_inj = 00000000 00           0         187
error_counter,err_inj = 00000000 00           0         188
error_counter,err_inj = 00000000 00           0         189
error_counter,err_inj = 00000000 00           0         190
error_counter,err_inj = 00000000 00           0         191
error_counter,err_inj = 00000000 00           0         192
error_counter,err_inj = 00000000 00           0         193
error_counter,err_inj = 00000000 00           0         194
error_counter,err_inj = 00000000 00           0         195
error_counter,err_inj = 00000000 00           0         196
error_counter,err_inj = 00000000 00           0         197
error_counter,err_inj = 00000000 00           0         198
error_counter,err_inj = 00000000 00           0         199
error_counter,err_inj = 00000000 00           0         200
error_counter,err_inj = 00000000 00           0         201
error_counter,err_inj = 00000000 00           0         202
error_counter,err_inj = 00000000 00           0         203
error_counter,err_inj = 00000000 00           0         204
error_counter,err_inj = 00000000 00           0         205
error_counter,err_inj = 00000000 00           0         206
error_counter,err_inj = 00000000 00           0         207
error_counter,err_inj = 00000000 00           0         208
error_counter,err_inj = 00000000 00           0         209
error_counter,err_inj = 00000000 00           0         210
error_counter,err_inj = 00000000 00           0         211
error_counter,err_inj = 00000000 00           0         212
error_counter,err_inj = 00000000 00           0         213
error_counter,err_inj = 00000000 00           0         214
error_counter,err_inj = 00000000 00           0         215
error_counter,err_inj = 00000000 00           0         216
error_counter,err_inj = 00000000 00           0         217
error_counter,err_inj = 00000000 00           0         218
error_counter,err_inj = 00000000 00           0         219
error_counter,err_inj = 00000000 00           0         220
error_counter,err_inj = 00000000 00           0         221
error_counter,err_inj = 00000000 00           0         222
error_counter,err_inj = 00000000 00           0         223
error_counter,err_inj = 00000000 00           0         224
error_counter,err_inj = 00000000 00           0         225
error_counter,err_inj = 00000000 00           0         226
error_counter,err_inj = 00000000 00           0         227
error_counter,err_inj = 00000000 00           0         228
error_counter,err_inj = 00000000 00           0         229
error_counter,err_inj = 00000000 00           0         230
error_counter,err_inj = 00000000 00           0         231
error_counter,err_inj = 00000000 00           0         232
error_counter,err_inj = 00000000 00           0         233
error_counter,err_inj = 00000000 00           0         234
error_counter,err_inj = 00000000 00           0         235
error_counter,err_inj = 00000000 00           0         236
error_counter,err_inj = 00000000 00           0         237
error_counter,err_inj = 00000000 00           0         238
error_counter,err_inj = 00000000 00           0         239
error_counter,err_inj = 00000000 00           0         240
error_counter,err_inj = 00000000 00           0         241
error_counter,err_inj = 00000000 00           0         242
error_counter,err_inj = 00000000 00           0         243
error_counter,err_inj = 00000000 00           0         244
error_counter,err_inj = 00000000 00           0         245
error_counter,err_inj = 00000000 00           0         246
error_counter,err_inj = 00000000 00           0         247
error_counter,err_inj = 00000000 00           0         248
error_counter,err_inj = 00000000 00           0         249
error_counter,err_inj = 00000000 00           0         250
error_counter,err_inj = 00000000 00           0         251
error_counter,err_inj = 00000000 00           0         252
error_counter,err_inj = 00000000 00           0         253
error_counter,err_inj = 00000000 00           0         254
error_counter,err_inj = 00000000 00           0         255
word_count =       10440
yaa! in = 0, out = 0, w_ct =           0, err = 00
yaa! in = 0, out = 0, w_ct =           1, err = 00
yaa! in = 0, out = 0, w_ct =           2, err = 00
yaa! in = 0, out = 0, w_ct =           3, err = 00
yaa! in = 0, out = 0, w_ct =           4, err = 00
yaa! in = 0, out = 0, w_ct =           5, err = 00
yaa! in = 0, out = 0, w_ct =           6, err = 00
yaa! in = 0, out = 0, w_ct =           7, err = 00
yaa! in = 0, out = 0, w_ct =           8, err = 00
yaa! in = 0, out = 0, w_ct =           9, err = 00
yaa! in = 0, out = 0, w_ct =          10, err = 00
yaa! in = 1, out = 1, w_ct =          11, err = 00
yaa! in = 0, out = 0, w_ct =          12, err = 00
yaa! in = 0, out = 0, w_ct =          13, err = 00
yaa! in = 1, out = 1, w_ct =          14, err = 00
yaa! in = 1, out = 1, w_ct =          15, err = 00
yaa! in = 0, out = 0, w_ct =          16, err = 00
yaa! in = 0, out = 0, w_ct =          17, err = 00
yaa! in = 0, out = 0, w_ct =          18, err = 00
yaa! in = 1, out = 1, w_ct =          19, err = 00
yaa! in = 1, out = 1, w_ct =          20, err = 00
yaa! in = 1, out = 1, w_ct =          21, err = 00
yaa! in = 0, out = 0, w_ct =          22, err = 00
yaa! in = 0, out = 0, w_ct =          23, err = 00
yaa! in = 0, out = 0, w_ct =          24, err = 00
yaa! in = 0, out = 0, w_ct =          25, err = 00
yaa! in = 1, out = 1, w_ct =          26, err = 00
yaa! in = 1, out = 1, w_ct =          27, err = 00
yaa! in = 1, out = 1, w_ct =          28, err = 00
yaa! in = 1, out = 1, w_ct =          29, err = 00
yaa! in = 0, out = 0, w_ct =          30, err = 00
yaa! in = 0, out = 0, w_ct =          31, err = 00
yaa! in = 0, out = 0, w_ct =          32, err = 00
yaa! in = 0, out = 0, w_ct =          33, err = 00
yaa! in = 0, out = 0, w_ct =          34, err = 00
yaa! in = 1, out = 1, w_ct =          35, err = 00
yaa! in = 1, out = 1, w_ct =          36, err = 00
yaa! in = 1, out = 1, w_ct =          37, err = 00
yaa! in = 1, out = 1, w_ct =          38, err = 00
yaa! in = 1, out = 1, w_ct =          39, err = 00
yaa! in = 0, out = 0, w_ct =          40, err = 00
yaa! in = 1, out = 1, w_ct =          41, err = 00
yaa! in = 0, out = 0, w_ct =          42, err = 00
yaa! in = 1, out = 1, w_ct =          43, err = 00
yaa! in = 0, out = 0, w_ct =          44, err = 00
yaa! in = 1, out = 1, w_ct =          45, err = 00
yaa! in = 0, out = 0, w_ct =          46, err = 00
yaa! in = 1, out = 1, w_ct =          47, err = 00
yaa! in = 0, out = 0, w_ct =          48, err = 00
yaa! in = 1, out = 1, w_ct =          49, err = 00
yaa! in = 0, out = 0, w_ct =          50, err = 00
yaa! in = 0, out = 0, w_ct =          51, err = 00
yaa! in = 1, out = 1, w_ct =          52, err = 00
yaa! in = 1, out = 1, w_ct =          53, err = 00
yaa! in = 0, out = 0, w_ct =          54, err = 00
yaa! in = 0, out = 0, w_ct =          55, err = 00
yaa! in = 0, out = 0, w_ct =          56, err = 00
yaa! in = 1, out = 1, w_ct =          57, err = 00
yaa! in = 1, out = 1, w_ct =          58, err = 00
yaa! in = 1, out = 1, w_ct =          59, err = 00
yaa! in = 0, out = 0, w_ct =          60, err = 00
yaa! in = 0, out = 0, w_ct =          61, err = 00
yaa! in = 0, out = 0, w_ct =          62, err = 00
yaa! in = 0, out = 0, w_ct =          63, err = 00
yaa! in = 1, out = 1, w_ct =          64, err = 00
yaa! in = 1, out = 1, w_ct =          65, err = 00
yaa! in = 1, out = 1, w_ct =          66, err = 00
yaa! in = 1, out = 1, w_ct =          67, err = 00
yaa! in = 0, out = 0, w_ct =          68, err = 00
yaa! in = 0, out = 0, w_ct =          69, err = 00
yaa! in = 0, out = 0, w_ct =          70, err = 00
yaa! in = 0, out = 0, w_ct =          71, err = 00
yaa! in = 0, out = 0, w_ct =          72, err = 00
yaa! in = 1, out = 1, w_ct =          73, err = 00
yaa! in = 1, out = 1, w_ct =          74, err = 00
yaa! in = 1, out = 1, w_ct =          75, err = 00
yaa! in = 1, out = 1, w_ct =          76, err = 00
yaa! in = 1, out = 1, w_ct =          77, err = 00
yaa! in = 0, out = 0, w_ct =          78, err = 00
yaa! in = 1, out = 1, w_ct =          79, err = 00
yaa! in = 0, out = 0, w_ct =          80, err = 00
yaa! in = 1, out = 1, w_ct =          81, err = 00
yaa! in = 0, out = 0, w_ct =          82, err = 00
yaa! in = 1, out = 1, w_ct =          83, err = 00
yaa! in = 0, out = 0, w_ct =          84, err = 00
yaa! in = 1, out = 1, w_ct =          85, err = 00
yaa! in = 0, out = 0, w_ct =          86, err = 00
yaa! in = 0, out = 0, w_ct =          87, err = 00
yaa! in = 0, out = 0, w_ct =          88, err = 00
yaa! in = 0, out = 0, w_ct =          89, err = 00
yaa! in = 0, out = 0, w_ct =          90, err = 00
yaa! in = 0, out = 0, w_ct =          91, err = 00
yaa! in = 0, out = 0, w_ct =          92, err = 00
yaa! in = 0, out = 0, w_ct =          93, err = 00
yaa! in = 0, out = 0, w_ct =          94, err = 00
yaa! in = 0, out = 0, w_ct =          95, err = 00
yaa! in = 1, out = 1, w_ct =          96, err = 00
yaa! in = 1, out = 1, w_ct =          97, err = 00
yaa! in = 1, out = 1, w_ct =          98, err = 00
yaa! in = 1, out = 1, w_ct =          99, err = 00
yaa! in = 1, out = 1, w_ct =         100, err = 00
yaa! in = 1, out = 1, w_ct =         101, err = 00
yaa! in = 1, out = 1, w_ct =         102, err = 00
yaa! in = 1, out = 1, w_ct =         103, err = 00
yaa! in = 1, out = 1, w_ct =         104, err = 00
yaa! in = 1, out = 1, w_ct =         105, err = 00
yaa! in = 0, out = 0, w_ct =         106, err = 00
yaa! in = 0, out = 0, w_ct =         107, err = 00
yaa! in = 0, out = 0, w_ct =         108, err = 00
yaa! in = 1, out = 1, w_ct =         109, err = 00
yaa! in = 0, out = 0, w_ct =         110, err = 00
yaa! in = 1, out = 1, w_ct =         111, err = 00
yaa! in = 1, out = 1, w_ct =         112, err = 00
yaa! in = 0, out = 0, w_ct =         113, err = 00
yaa! in = 0, out = 0, w_ct =         114, err = 00
yaa! in = 0, out = 0, w_ct =         115, err = 00
yaa! in = 1, out = 1, w_ct =         116, err = 00
yaa! in = 0, out = 0, w_ct =         117, err = 00
yaa! in = 1, out = 1, w_ct =         118, err = 00
yaa! in = 1, out = 1, w_ct =         119, err = 00
yaa! in = 1, out = 1, w_ct =         120, err = 00
yaa! in = 1, out = 1, w_ct =         121, err = 00
yaa! in = 0, out = 0, w_ct =         122, err = 00
yaa! in = 0, out = 0, w_ct =         123, err = 00
yaa! in = 1, out = 1, w_ct =         124, err = 00
yaa! in = 0, out = 0, w_ct =         125, err = 00
yaa! in = 0, out = 0, w_ct =         126, err = 00
yaa! in = 0, out = 0, w_ct =         127, err = 00
yaa! in = 0, out = 0, w_ct =         128, err = 00
yaa! in = 0, out = 0, w_ct =         129, err = 00
yaa! in = 0, out = 0, w_ct =         130, err = 00
yaa! in = 0, out = 0, w_ct =         131, err = 00
yaa! in = 0, out = 0, w_ct =         132, err = 00
yaa! in = 0, out = 0, w_ct =         133, err = 00
yaa! in = 0, out = 0, w_ct =         134, err = 00
yaa! in = 0, out = 0, w_ct =         135, err = 00
yaa! in = 0, out = 0, w_ct =         136, err = 00
yaa! in = 1, out = 1, w_ct =         137, err = 00
yaa! in = 1, out = 1, w_ct =         138, err = 00
yaa! in = 1, out = 1, w_ct =         139, err = 00
yaa! in = 1, out = 1, w_ct =         140, err = 00
yaa! in = 1, out = 1, w_ct =         141, err = 00
yaa! in = 1, out = 1, w_ct =         142, err = 00
yaa! in = 1, out = 1, w_ct =         143, err = 00
yaa! in = 1, out = 1, w_ct =         144, err = 00
yaa! in = 1, out = 1, w_ct =         145, err = 00
yaa! in = 1, out = 1, w_ct =         146, err = 00
yaa! in = 0, out = 0, w_ct =         147, err = 00
yaa! in = 1, out = 1, w_ct =         148, err = 00
yaa! in = 1, out = 1, w_ct =         149, err = 00
yaa! in = 1, out = 1, w_ct =         150, err = 00
yaa! in = 1, out = 1, w_ct =         151, err = 00
yaa! in = 1, out = 1, w_ct =         152, err = 00
yaa! in = 1, out = 1, w_ct =         153, err = 00
yaa! in = 1, out = 1, w_ct =         154, err = 00
yaa! in = 1, out = 1, w_ct =         155, err = 00
yaa! in = 1, out = 1, w_ct =         156, err = 00
yaa! in = 1, out = 1, w_ct =         157, err = 00
yaa! in = 1, out = 1, w_ct =         158, err = 00
yaa! in = 1, out = 1, w_ct =         159, err = 00
yaa! in = 1, out = 1, w_ct =         160, err = 00
yaa! in = 1, out = 1, w_ct =         161, err = 00
yaa! in = 1, out = 1, w_ct =         162, err = 00
yaa! in = 1, out = 1, w_ct =         163, err = 00
yaa! in = 1, out = 1, w_ct =         164, err = 00
yaa! in = 1, out = 1, w_ct =         165, err = 00
yaa! in = 1, out = 1, w_ct =         166, err = 00
yaa! in = 1, out = 1, w_ct =         167, err = 00
yaa! in = 1, out = 1, w_ct =         168, err = 00
yaa! in = 1, out = 1, w_ct =         169, err = 00
yaa! in = 1, out = 1, w_ct =         170, err = 00
yaa! in = 1, out = 1, w_ct =         171, err = 00
yaa! in = 1, out = 1, w_ct =         172, err = 00
yaa! in = 1, out = 1, w_ct =         173, err = 00
yaa! in = 1, out = 1, w_ct =         174, err = 00
yaa! in = 1, out = 1, w_ct =         175, err = 00
yaa! in = 1, out = 1, w_ct =         176, err = 00
